VObject,nVoxels,271,name,Torus
-3.00336089896696,-4,2,0,0.771093898346226,
-2,-4,2,1,0.404162594771088,
-1,-4,2,2,0.165998670349828,
0,-4,2,3,0.985047052607428,
1,-4,2,4,0.109004633551931,
2,-4,2,5,0.306680407983568,
-4,-3,2,6,0.802140461188806,
-3,-3,2,7,0.445546678940554,
-2,-3,2,8,0.224983153969507,
-1,-3,2,9,0.0112066529743404,
0,-3,2,10,0.765367340652909,
1,-3,2,11,0.0287435907073056,
2,-3,2,12,0.00756119052300285,
3,-3,2,13,0.510022416948351,
-4,-2,2,14,0.382094984586395,
-3,-2,2,15,0.279408783316337,
-2,-2,2,16,0.703088294110768,
1,-2,2,17,0.235345735324242,
2,-2,2,18,0.731321921912637,
3,-2,2,19,0.0890015578311875,
-4,-1,2,20,0.082648985126358,
-3,-1,2,21,0.33872517819457,
2,-1,2,22,0.329912196067121,
3,-1,2,23,0.73131695703199,
-4,0,2,24,0.895953410722294,
-3,0,2,25,0.812650163570722,
2,0,2,26,0.653548586486629,
3,0,2,27,0.926836201887036,
-4,1,2,28,0.0992414262607887,
-3,1,2,29,0.691829131307001,
-2,1,2,30,0.925480057450701,
1,1,2,31,0.980140829449585,
2,1,2,32,0.101419798611393,
3,1,2,33,0.038685026130958,
-4,2,2,34,0.341054720031589,
-3,2,2,35,0.849639621493239,
-2,2,2,36,0.68709290525275,
-1,2,2,37,0.744002142801882,
0,2,2,38,0.685645662567413,
1,2,2,39,0.093061322855326,
2,2,2,40,0.0405211039076192,
3,2,2,41,0.271620187569233,
-3,3,2,42,0.263251126400778,
-2,3,2,43,0.49977948493314,
-1,3,2,44,0.961569905263171,
0,3,2,45,0.556045466361589,
1,3,2,46,0.0176030080847456,
2,3,2,47,0.488540577464057,
-3,-4,3,48,0.342212458766164,
-2,-4,3,49,0.485653481672357,
-1,-4,3,50,0.642432012894392,
0,-4,3,51,0.620127741070524,
1,-4,3,52,0.0733453408225185,
2,-4,3,53,0.895421876523375,
-4,-3,3,54,0.595372762808284,
-3,-3,3,55,0.432368720151656,
-2,-3,3,56,0.0742503987039674,
-1,-3,3,57,0.434681713317838,
0,-3,3,58,0.0890936418851342,
1,-3,3,59,0.29635446998121,
2,-3,3,60,0.653131821496939,
3,-3,3,61,0.875304259301771,
-4,-2,3,62,0.346305252679766,
-3,-2,3,63,0.533154022662506,
2,-2,3,64,0.0857265955236399,
3,-2,3,65,0.785226511203324,
-4,-1,3,66,0.927323792095913,
-3,-1,3,67,0.968876164392045,
2,-1,3,68,0.168967696916763,
3,-1,3,69,0.532455363093156,
-4,0,3,70,0.592315878063587,
-3,0,3,71,0.959086151308886,
2,0,3,72,0.549700072756829,
3,0,3,73,0.638260599057311,
-4,1,3,74,0.0484804539235683,
-3,1,3,75,0.811028797557125,
2,1,3,76,0.0754740517937923,
3,1,3,77,0.830132711133981,
-4,2,3,78,0.769747051768818,
-3,2,3,79,0.339907944360705,
-2,2,3,80,0.795047155485976,
-1,2,3,81,0.165008009022571,
0,2,3,82,0.584623743120871,
1,2,3,83,0.613587944588432,
2,2,3,84,0.0493971184126088,
3,2,3,85,0.305352316380177,
-3,3,3,86,0.906795488627067,
-2,3,3,87,0.205997922088019,
-1,3,3,88,0.443312263322674,
0,3,3,89,0.908685999879933,
1,3,3,90,0.775389222789271,
2,3,3,91,0.252411191934911,
-3,-4,4,92,0.654908500916748,
-2,-4,4,93,0.389291192586204,
-1,-4,4,94,0.439929501358387,
0,-4,4,95,0.165216844605849,
1,-4,4,96,0.925314934889467,
2,-4,4,97,0.730097103738271,
-4,-3,4,98,0.4140528894095,
-3,-3,4,99,0.176343394059848,
-2,-3,4,100,0.628721674265676,
-1,-3,4,101,0.0487268436927008,
0,-3,4,102,0.319572880547295,
1,-3,4,103,0.809757095673008,
2,-3,4,104,0.893337603608769,
3,-3,4,105,0.683345861585506,
-4,-2,4,106,0.070427668313695,
-3,-2,4,107,0.435084741765207,
2,-2,4,108,0.846941422599806,
3,-2,4,109,0.784343965251159,
-4,-1,4,110,0.356894668357863,
-3,-1,4,111,0.244117687569986,
2,-1,4,112,0.66493466154902,
3,-1,4,113,0.749185697524429,
-4,0,4,114,0.501307314495233,
-3,0,4,115,0.488123812474368,
2,0,4,116,0.290680516180899,
3,0,4,117,0.732717308091334,
-4,1,4,118,0.483756904249898,
-3,1,4,119,0.780374279143463,
-2,1,4,120,0.878431022576257,
1,1,4,121,0.721325870007894,
2,1,4,122,0.525563901069371,
3,1,4,123,0.26028169703683,
-4,2,4,124,0.757066140303885,
-3,2,4,125,0.339904686128676,
-2,2,4,126,0.304177650392138,
-1,2,4,127,0.160408880170625,
0,2,4,128,0.198331097698925,
1,2,4,129,0.88326360931772,
2,2,4,130,0.885713862667658,
3,2,4,131,0.345376948055521,
-3,3,4,132,0.416079821724482,
-2,3,4,133,0.593403657708971,
-1,3,4,134,0.711186270095029,
0,3,4,135,0.746320311793275,
1,3,4,136,0.845435128475276,
2,3,4,137,0.774866647447863,
-3,-4,5,138,0.720250340979663,
-2,-4,5,139,0.366051256827103,
-1,-4,5,140,0.234924648066482,
0,-4,5,141,0.47171074686186,
1,-4,5,142,0.359056499488212,
2,-4,5,143,0.658968298071515,
-4,-3,5,144,0.55179133152207,
-3,-3,5,145,0.531271535219285,
-2,-3,5,146,0.587476530385891,
-1,-3,5,147,0.905722803392318,
0,-3,5,148,0.88798387809097,
1,-3,5,149,0.951805688884019,
2,-3,5,150,0.874536328424949,
3,-3,5,151,0.192597626798133,
-4,-2,5,152,0.246340199488374,
-3,-2,5,153,0.633678610266037,
2,-2,5,154,0.297912371483591,
3,-2,5,155,0.907395804257782,
-4,-1,5,156,0.52316294262333,
-3,-1,5,157,0.0592911835104652,
2,-1,5,158,0.0526909553691237,
3,-1,5,159,0.553432917480093,
-4,0,5,160,0.379168211193368,
-3,0,5,161,0.91001878814307,
2,0,5,162,0.236753644066282,
3,0,5,163,0.963677813282086,
-4,1,5,164,0.898630102583501,
-3,1,5,165,0.0115177203023423,
-2,1,5,166,0.828037865845504,
1,1,5,167,0.0715310038400493,
2,1,5,168,0.0379994274294001,
3,1,5,169,0.754987002701958,
-4,2,5,170,0.642688683999092,
-3,2,5,171,0.515813868733036,
-2,2,5,172,0.0124669671116709,
-1,2,5,173,0.117705647422795,
0,2,5,174,0.545449631076981,
1,2,5,175,0.406720275714398,
2,2,5,176,0.362269370519682,
3,2,5,177,0.866595602997856,
-3,3,5,178,0.70849036551476,
-2,3,5,179,0.225794605084599,
-1,3,5,180,0.752428155742785,
0,3,5,181,0.39845484699982,
1,3,5,182,0.272425002079655,
2,3,5,183,0.246525408814906,
-3,-4,6,184,0.0087272808927704,
-2,-4,6,185,0.693116235869525,
-1,-4,6,186,0.0990367485671475,
0,-4,6,187,0.782401211458445,
1,-4,6,188,0.29549128622538,
2,-4,6,189,0.803790465837247,
-4,-3,6,190,0.223157369169946,
-3,-3,6,191,0.786143944964811,
-2,-3,6,192,0.722175692078739,
-1,-3,6,193,0.16681742349957,
0,-3,6,194,0.986883045633735,
1,-3,6,195,0.324905859923412,
2,-3,6,196,0.234957102795577,
3,-3,6,197,0.395378686206126,
-4,-2,6,198,0.760338195488014,
-3,-2,6,199,0.540273611219727,
-2,-2,6,200,0.703233669373781,
1,-2,6,201,0.515945526545842,
2,-2,6,202,0.867723375962918,
3,-2,6,203,0.132996875389012,
-4,-1,6,204,0.309117004884927,
-3,-1,6,205,0.358722459691913,
2,-1,6,206,0.180130659686462,
3,-1,6,207,0.128634552065579,
-4,0,6,208,0.0882289791890555,
-3,0,6,209,0.891192095769193,
2,0,6,210,0.545126433738101,
3,0,6,211,0.656567339625474,
-4,1,6,212,0.350800817995705,
-3,1,6,213,0.826896350284524,
-2,1,6,214,0.801004761737308,
1,1,6,215,0.980713364193548,
2,1,6,216,0.637593786063415,
3,1,6,217,0.990228235251376,
-4,2,6,218,0.954950532389316,
-3,2,6,219,0.205513866713976,
-2,2,6,220,0.912480971735195,
-1,2,6,221,0.045636654387059,
0,2,6,222,0.776039717614669,
1,2,6,223,0.234208961592153,
2,2,6,224,0.531829633532013,
3,2,6,225,0.856544739034281,
-3,3,6,226,0.793638176654297,
-2,3,6,227,0.845649543612101,
-1,3,6,228,0.13082260178906,
0,3,6,229,0.220543771153569,
1,3,6,230,0.17176317291882,
2,3,6,231,0.966890684313556,
-3,-4,7,232,0.106257407509842,
-2,-4,7,233,0.168216754295033,
-1,-4,7,234,0.522560935710818,
0,-4,7,235,0.236482629196943,
1,-4,7,236,0.530731471036901,
2,-4,7,237,0.139428126690643,
-3,-3,7,238,0.937408403929979,
-2,-3,7,239,0.650004821200857,
-1,-3,7,240,0.512985576183063,
0,-3,7,241,0.970402196501569,
1,-3,7,242,0.69417223226939,
2,-3,7,243,0.404299190456187,
3,-3,7,244,0.258664032099146,
-4,-2,7,245,0.566590029544472,
-3,-2,7,246,0.435343126969106,
2,-2,7,247,0.895279341794215,
3,-2,7,248,0.365812661762262,
-4,-1,7,249,0.00616968144018654,
-3,-1,7,250,0.687312073859997,
2,-1,7,251,0.244728867544201,
3,-1,7,252,0.44042815381681,
-4,0,7,253,0.554824328774039,
-3,0,7,254,0.627792639484532,
2,0,7,255,0.657597014986722,
3,0,7,256,0.739905808931173,
-4,1,7,257,0.633514414370765,
-3,1,7,258,0.601167241856999,
2,1,7,259,0.452572265850647,
3,1,7,260,0.565084283037616,
-3,2,7,261,0.334481116074361,
-2,2,7,262,0.997811950276518,
-1,2,7,263,0.867685208035486,
0,2,7,264,0.719428922850373,
1,2,7,265,0.578235749424545,
2,2,7,266,0.550309932115632,
-2,3,7,267,0.182584063700672,
-1,3,7,268,0.304335414573706,
0,3,7,269,0.564522132540365,
1,3,7,270,0.449981893156647,
