VObject,nVoxels,68,name,8
1,-2,0.5,0,0.771093898
0.5,0,0.5,1,0.404162595
0.5,-2,1,2,0.16599867
0.5,0,1,3,0.985047053
0.5,-3.5,1.5,4,0.109004634
-1.5,-1.5,1.5,5,0.306680408
-2,1,1.5,6,0.802140461
3,-2.5,2,7,0.445546679
-1,0.5,2,8,0.224983154
0.5,-1.5,2.5,9,0.011206653
3.5,-0.5,2.5,10,0.765367341
0,-1.5,3,11,0.028743591
0.5,-1,3,12,0.007561191
1,-1,3,13,0.510022417
4,1,3,14,0.382094985
1,-1.5,3.5,15,0.279408783
0.5,-1,3.5,16,0.703088294
-0.5,-0.5,3.5,17,0.235345735
0,-0.5,3.5,18,0.731321922
0.5,-0.5,3.5,19,0.089001558
0.5,-2.5,4,20,0.082648985
4,-2,4,21,0.338725178
4.5,-2,4,22,0.329912196
2,-1.5,4,23,0.731316957
2.5,-1.5,4,24,0.895953411
0,-1,4,25,0.812650164
2,-0.5,4,26,0.653548586
0.5,0.5,4,27,0.926836202
2,0.5,4,28,0.099241426
2.5,1,4,29,0.691829131
0.5,-3,4.5,30,0.925480057
-0.5,-1,4.5,31,0.980140829
0,-1,4.5,32,0.101419799
0,-0.5,4.5,33,0.038685026
1,0,4.5,34,0.34105472
1,-5,5,35,0.849639621
-2,-1.5,5,36,0.687092905
-0.5,-1.5,5,37,0.744002143
-0.5,-1,5,38,0.685645663
0,-1,5,39,0.093061323
-1.5,-0.5,5,40,0.040521104
-0.5,-0.5,5,41,0.271620188
0,0,5,42,0.263251126
0,-1,5.5,43,0.499779485
2,0,5.5,44,0.961569905
-0.5,1.5,5.5,45,0.556045466
-0.5,-2.5,6,46,0.017603008
-4,-2,6,47,0.488540577
-0.5,-1.5,6,48,0.342212459
4,-1.5,6,49,0.485653482
-1,-1,6,50,0.642432013
0,-1,6,51,0.620127741
-0.5,0.5,6,52,0.073345341
0,1.5,6,53,0.895421877
2,1.5,6,54,0.595372763
-3.5,-0.5,6.5,55,0.43236872
-4.5,0.5,6.5,56,0.074250399
0,2,6.5,57,0.434681713
1,0.5,7,58,0.089093642
-1,-2,7.5,59,0.29635447
3,-1.5,7.5,60,0.653131821
0.5,-0.5,7.5,61,0.875304259
3.5,-1.5,8,62,0.346305253
0,-0.5,8.5,63,0.533154023
-1.5,-2.5,9,64,0.085726596
0,-0.5,9,65,0.785226511
-1,0.5,9,66,0.927323792
0,-0.5,9.5,67,0.968876164
