VObject,nVoxels,173,name,2
-2,2,0.5,0,0.771093898346226,
-1.5,2,0.5,1,0.404162594771088,
-1,2,0.5,2,0.165998670349828,
-0.5,2,0.5,3,0.985047052607428,
-2.5,2.5,0.5,4,0.109004633551931,
-2,2.5,0.5,5,0.306680407983568,
-1.5,2.5,0.5,6,0.802140461188806,
-1,2.5,0.5,7,0.445546678940554,
-0.5,2.5,0.5,8,0.224983153969507,
-3,3,0.5,9,0.0112066529743404,
-2.5,3,0.5,10,0.765367340652909,
-2,3,0.5,11,0.0287435907073056,
-1.5,3,0.5,12,0.00756119052300285,
-1,3,0.5,13,0.510022416948351,
-3,3.5,0.5,14,0.382094984586395,
-2.5,3.5,0.5,15,0.279408783316337,
-2,3.5,0.5,16,0.703088294110768,
-1.5,3.5,0.5,17,0.235345735324242,
-3,4,0.5,18,0.731321921912637,
-2.5,4,0.5,19,0.0890015578311875,
-1,1,1,20,0.082648985126358,
-0.5,1,1,21,0.33872517819457,
0,1,1,22,0.329912196067121,
0.5,1,1,23,0.73131695703199,
-1.5,1.5,1,24,0.895953410722294,
-1,1.5,1,25,0.812650163570722,
-0.5,1.5,1,26,0.653548586486629,
0,1.5,1,27,0.926836201887036,
0.5,1.5,1,28,0.0992414262607887,
-2,2,1,29,0.691829131307001,
-1.5,2,1,30,0.925480057450701,
-1,2,1,31,0.980140829449585,
-0.5,2,1,32,0.101419798611393,
0,2,1,33,0.038685026130958,
0.5,2,1,34,0.341054720031589,
-2.5,2.5,1,35,0.849639621493239,
-2,2.5,1,36,0.68709290525275,
-1.5,2.5,1,37,0.744002142801882,
-1,2.5,1,38,0.685645662567413,
-0.5,2.5,1,39,0.093061322855326,
0,2.5,1,40,0.0405211039076192,
-3,3,1,41,0.271620187569233,
-2.5,3,1,42,0.263251126400778,
-2,3,1,43,0.49977948493314,
-1.5,3,1,44,0.961569905263171,
-1,3,1,45,0.556045466361589,
-0.5,3,1,46,0.0176030080847456,
-3,3.5,1,47,0.488540577464057,
-2.5,3.5,1,48,0.342212458766164,
-2,3.5,1,49,0.485653481672357,
-1.5,3.5,1,50,0.642432012894392,
0.5,0,1.5,51,0.620127741070524,
1,0,1.5,52,0.0733453408225185,
1.5,0,1.5,53,0.895421876523375,
-0.5,0.5,1.5,54,0.595372762808284,
0,0.5,1.5,55,0.432368720151656,
0.5,0.5,1.5,56,0.0742503987039674,
1,0.5,1.5,57,0.434681713317838,
1.5,0.5,1.5,58,0.0890936418851342,
-1,1,1.5,59,0.29635446998121,
-0.5,1,1.5,60,0.653131821496939,
0,1,1.5,61,0.875304259301771,
0.5,1,1.5,62,0.346305252679766,
1,1,1.5,63,0.533154022662506,
1.5,1,1.5,64,0.0857265955236399,
-1.5,1.5,1.5,65,0.785226511203324,
-1,1.5,1.5,66,0.927323792095913,
-0.5,1.5,1.5,67,0.968876164392045,
0,1.5,1.5,68,0.168967696916763,
0.5,1.5,1.5,69,0.532455363093156,
1,1.5,1.5,70,0.592315878063587,
-2,2,1.5,71,0.959086151308886,
-1.5,2,1.5,72,0.549700072756829,
-1,2,1.5,73,0.638260599057311,
-0.5,2,1.5,74,0.0484804539235683,
0,2,1.5,75,0.811028797557125,
0.5,2,1.5,76,0.0754740517937923,
-2.5,2.5,1.5,77,0.830132711133981,
-2,2.5,1.5,78,0.769747051768818,
-1.5,2.5,1.5,79,0.339907944360705,
-1,2.5,1.5,80,0.795047155485976,
-0.5,2.5,1.5,81,0.165008009022571,
0,2.5,1.5,82,0.584623743120871,
-2.5,3,1.5,83,0.613587944588432,
-2,3,1.5,84,0.0493971184126088,
-1.5,3,1.5,85,0.305352316380177,
-1,3,1.5,86,0.906795488627067,
-0.5,3,1.5,87,0.205997922088019,
-2.5,3.5,1.5,88,0.443312263322674,
-2,3.5,1.5,89,0.908685999879933,
-1.5,3.5,1.5,90,0.775389222789271,
1,-0.5,2,91,0.252411191934911,
1.5,-0.5,2,92,0.654908500916748,
2,-0.5,2,93,0.389291192586204,
0,0,2,94,0.439929501358387,
0.5,0,2,95,0.165216844605849,
1,0,2,96,0.925314934889467,
1.5,0,2,97,0.730097103738271,
2,0,2,98,0.4140528894095,
-0.5,0.5,2,99,0.176343394059848,
0,0.5,2,100,0.628721674265676,
0.5,0.5,2,101,0.0487268436927008,
1,0.5,2,102,0.319572880547295,
1.5,0.5,2,103,0.809757095673008,
2,0.5,2,104,0.893337603608769,
-1,1,2,105,0.683345861585506,
-0.5,1,2,106,0.070427668313695,
0,1,2,107,0.435084741765207,
0.5,1,2,108,0.846941422599806,
1,1,2,109,0.784343965251159,
1.5,1,2,110,0.356894668357863,
-1.5,1.5,2,111,0.244117687569986,
-1,1.5,2,112,0.66493466154902,
-0.5,1.5,2,113,0.749185697524429,
0,1.5,2,114,0.501307314495233,
0.5,1.5,2,115,0.488123812474368,
1,1.5,2,116,0.290680516180899,
1.5,1.5,2,117,0.732717308091334,
-2,2,2,118,0.483756904249898,
-1.5,2,2,119,0.780374279143463,
-1,2,2,120,0.878431022576257,
-0.5,2,2,121,0.721325870007894,
0,2,2,122,0.525563901069371,
0.5,2,2,123,0.26028169703683,
-2,2.5,2,124,0.757066140303885,
-1.5,2.5,2,125,0.339904686128676,
-1,2.5,2,126,0.304177650392138,
-0.5,2.5,2,127,0.160408880170625,
0,2.5,2,128,0.198331097698925,
-1.5,3,2,129,0.88326360931772,
-1,3,2,130,0.885713862667658,
1,-0.5,2.5,131,0.345376948055521,
1.5,-0.5,2.5,132,0.416079821724482,
2,-0.5,2.5,133,0.593403657708971,
2.5,-0.5,2.5,134,0.711186270095029,
0.5,0,2.5,135,0.746320311793275,
1,0,2.5,136,0.845435128475276,
1.5,0,2.5,137,0.774866647447863,
2,0,2.5,138,0.720250340979663,
2.5,0,2.5,139,0.366051256827103,
-0.5,0.5,2.5,140,0.234924648066482,
0,0.5,2.5,141,0.47171074686186,
0.5,0.5,2.5,142,0.359056499488212,
1,0.5,2.5,143,0.658968298071515,
1.5,0.5,2.5,144,0.55179133152207,
2,0.5,2.5,145,0.531271535219285,
-0.5,1,2.5,146,0.587476530385891,
0,1,2.5,147,0.905722803392318,
0.5,1,2.5,148,0.88798387809097,
1,1,2.5,149,0.951805688884019,
1.5,1,2.5,150,0.874536328424949,
-1,1.5,2.5,151,0.192597626798133,
-0.5,1.5,2.5,152,0.246340199488374,
0,1.5,2.5,153,0.633678610266037,
0.5,1.5,2.5,154,0.297912371483591,
1,1.5,2.5,155,0.907395804257782,
-1,2,2.5,156,0.52316294262333,
-0.5,2,2.5,157,0.0592911835104652,
0,2,2.5,158,0.0526909553691237,
0.5,2,2.5,159,0.553432917480093,
1.5,-0.5,3,160,0.379168211193368,
2,-0.5,3,161,0.91001878814307,
2.5,-0.5,3,162,0.236753644066282,
1,0,3,163,0.963677813282086,
1.5,0,3,164,0.898630102583501,
2,0,3,165,0.0115177203023423,
2.5,0,3,166,0.828037865845504,
0.5,0.5,3,167,0.0715310038400493,
1,0.5,3,168,0.0379994274294001,
1.5,0.5,3,169,0.754987002701958,
2,0.5,3,170,0.642688683999092,
0.5,1,3,171,0.515813868733036,
1,1,3,172,0.0124669671116709,
