VObject,nVoxels,509,name,4
-0.5,-3.5,0.5,0,0.771093898346226,
0,-3.5,0.5,1,0.404162594771088,
0.5,-3.5,0.5,2,0.165998670349828,
-1.5,-3,0.5,3,0.985047052607428,
-1,-3,0.5,4,0.109004633551931,
-0.5,-3,0.5,5,0.306680407983568,
0,-3,0.5,6,0.802140461188806,
0.5,-3,0.5,7,0.445546678940554,
1,-3,0.5,8,0.224983153969507,
1.5,-3,0.5,9,0.0112066529743404,
-2.5,-2.5,0.5,10,0.765367340652909,
-2,-2.5,0.5,11,0.0287435907073056,
-1.5,-2.5,0.5,12,0.00756119052300285,
-1,-2.5,0.5,13,0.510022416948351,
-0.5,-2.5,0.5,14,0.382094984586395,
0,-2.5,0.5,15,0.279408783316337,
0.5,-2.5,0.5,16,0.703088294110768,
1,-2.5,0.5,17,0.235345735324242,
1.5,-2.5,0.5,18,0.731321921912637,
2,-2.5,0.5,19,0.0890015578311875,
2.5,-2.5,0.5,20,0.082648985126358,
-2.5,-2,0.5,21,0.33872517819457,
-2,-2,0.5,22,0.329912196067121,
-1.5,-2,0.5,23,0.73131695703199,
-1,-2,0.5,24,0.895953410722294,
1,-2,0.5,25,0.812650163570722,
1.5,-2,0.5,26,0.653548586486629,
2,-2,0.5,27,0.926836201887036,
2.5,-2,0.5,28,0.0992414262607887,
-3,-1.5,0.5,29,0.691829131307001,
-2.5,-1.5,0.5,30,0.925480057450701,
-2,-1.5,0.5,31,0.980140829449585,
-1.5,-1.5,0.5,32,0.101419798611393,
1.5,-1.5,0.5,33,0.038685026130958,
2,-1.5,0.5,34,0.341054720031589,
2.5,-1.5,0.5,35,0.849639621493239,
3,-1.5,0.5,36,0.68709290525275,
-3,-1,0.5,37,0.744002142801882,
-2.5,-1,0.5,38,0.685645662567413,
-2,-1,0.5,39,0.093061322855326,
2,-1,0.5,40,0.0405211039076192,
2.5,-1,0.5,41,0.271620187569233,
3,-1,0.5,42,0.263251126400778,
-3.5,-0.5,0.5,43,0.49977948493314,
-3,-0.5,0.5,44,0.961569905263171,
-2.5,-0.5,0.5,45,0.556045466361589,
2,-0.5,0.5,46,0.0176030080847456,
2.5,-0.5,0.5,47,0.488540577464057,
3,-0.5,0.5,48,0.342212458766164,
-3.5,0,0.5,49,0.485653481672357,
-3,0,0.5,50,0.642432012894392,
-2.5,0,0.5,51,0.620127741070524,
2.5,0,0.5,52,0.0733453408225185,
3,0,0.5,53,0.895421876523375,
3.5,0,0.5,54,0.595372762808284,
-3.5,0.5,0.5,55,0.432368720151656,
-3,0.5,0.5,56,0.0742503987039674,
-2.5,0.5,0.5,57,0.434681713317838,
2,0.5,0.5,58,0.0890936418851342,
2.5,0.5,0.5,59,0.29635446998121,
3,0.5,0.5,60,0.653131821496939,
3.5,0.5,0.5,61,0.875304259301771,
-3,1,0.5,62,0.346305252679766,
-2.5,1,0.5,63,0.533154022662506,
-2,1,0.5,64,0.0857265955236399,
2,1,0.5,65,0.785226511203324,
2.5,1,0.5,66,0.927323792095913,
3,1,0.5,67,0.968876164392045,
-3,1.5,0.5,68,0.168967696916763,
-2.5,1.5,0.5,69,0.532455363093156,
-2,1.5,0.5,70,0.592315878063587,
1.5,1.5,0.5,71,0.959086151308886,
2,1.5,0.5,72,0.549700072756829,
2.5,1.5,0.5,73,0.638260599057311,
3,1.5,0.5,74,0.0484804539235683,
-3,2,0.5,75,0.811028797557125,
-2.5,2,0.5,76,0.0754740517937923,
-2,2,0.5,77,0.830132711133981,
-1.5,2,0.5,78,0.769747051768818,
-1,2,0.5,79,0.339907944360705,
1,2,0.5,80,0.795047155485976,
1.5,2,0.5,81,0.165008009022571,
2,2,0.5,82,0.584623743120871,
2.5,2,0.5,83,0.613587944588432,
-2.5,2.5,0.5,84,0.0493971184126088,
-2,2.5,0.5,85,0.305352316380177,
-1.5,2.5,0.5,86,0.906795488627067,
-1,2.5,0.5,87,0.205997922088019,
-0.5,2.5,0.5,88,0.443312263322674,
0,2.5,0.5,89,0.908685999879933,
0.5,2.5,0.5,90,0.775389222789271,
1,2.5,0.5,91,0.252411191934911,
1.5,2.5,0.5,92,0.654908500916748,
2,2.5,0.5,93,0.389291192586204,
2.5,2.5,0.5,94,0.439929501358387,
-2,3,0.5,95,0.165216844605849,
-1.5,3,0.5,96,0.925314934889467,
-1,3,0.5,97,0.730097103738271,
-0.5,3,0.5,98,0.4140528894095,
0,3,0.5,99,0.176343394059848,
0.5,3,0.5,100,0.628721674265676,
1,3,0.5,101,0.0487268436927008,
1.5,3,0.5,102,0.319572880547295,
-0.5,3.5,0.5,103,0.809757095673008,
0,3.5,0.5,104,0.893337603608769,
0.5,3.5,0.5,105,0.683345861585506,
-1.5,-3.5,1,106,0.070427668313695,
-1,-3.5,1,107,0.435084741765207,
-0.5,-3.5,1,108,0.846941422599806,
0,-3.5,1,109,0.784343965251159,
0.5,-3.5,1,110,0.356894668357863,
1,-3.5,1,111,0.244117687569986,
1.5,-3.5,1,112,0.66493466154902,
-2,-3,1,113,0.749185697524429,
-1.5,-3,1,114,0.501307314495233,
-1,-3,1,115,0.488123812474368,
-0.5,-3,1,116,0.290680516180899,
0,-3,1,117,0.732717308091334,
0.5,-3,1,118,0.483756904249898,
1,-3,1,119,0.780374279143463,
1.5,-3,1,120,0.878431022576257,
2,-3,1,121,0.721325870007894,
-2.5,-2.5,1,122,0.525563901069371,
-2,-2.5,1,123,0.26028169703683,
-1.5,-2.5,1,124,0.757066140303885,
-1,-2.5,1,125,0.339904686128676,
-0.5,-2.5,1,126,0.304177650392138,
0,-2.5,1,127,0.160408880170625,
0.5,-2.5,1,128,0.198331097698925,
1,-2.5,1,129,0.88326360931772,
1.5,-2.5,1,130,0.885713862667658,
2,-2.5,1,131,0.345376948055521,
2.5,-2.5,1,132,0.416079821724482,
-3,-2,1,133,0.593403657708971,
-2.5,-2,1,134,0.711186270095029,
-2,-2,1,135,0.746320311793275,
-1.5,-2,1,136,0.845435128475276,
-1,-2,1,137,0.774866647447863,
-0.5,-2,1,138,0.720250340979663,
0,-2,1,139,0.366051256827103,
0.5,-2,1,140,0.234924648066482,
1,-2,1,141,0.47171074686186,
1.5,-2,1,142,0.359056499488212,
2,-2,1,143,0.658968298071515,
2.5,-2,1,144,0.55179133152207,
3,-2,1,145,0.531271535219285,
-3.5,-1.5,1,146,0.587476530385891,
-3,-1.5,1,147,0.905722803392318,
-2.5,-1.5,1,148,0.88798387809097,
-2,-1.5,1,149,0.951805688884019,
-1.5,-1.5,1,150,0.874536328424949,
1,-1.5,1,151,0.192597626798133,
1.5,-1.5,1,152,0.246340199488374,
2,-1.5,1,153,0.633678610266037,
2.5,-1.5,1,154,0.297912371483591,
3,-1.5,1,155,0.907395804257782,
3.5,-1.5,1,156,0.52316294262333,
-3.5,-1,1,157,0.0592911835104652,
-3,-1,1,158,0.0526909553691237,
-2.5,-1,1,159,0.553432917480093,
-2,-1,1,160,0.379168211193368,
1.5,-1,1,161,0.91001878814307,
2,-1,1,162,0.236753644066282,
2.5,-1,1,163,0.963677813282086,
3,-1,1,164,0.898630102583501,
3.5,-1,1,165,0.0115177203023423,
-3.5,-0.5,1,166,0.828037865845504,
-3,-0.5,1,167,0.0715310038400493,
-2.5,-0.5,1,168,0.0379994274294001,
-2,-0.5,1,169,0.754987002701958,
2,-0.5,1,170,0.642688683999092,
2.5,-0.5,1,171,0.515813868733036,
3,-0.5,1,172,0.0124669671116709,
3.5,-0.5,1,173,0.117705647422795,
-3.5,0,1,174,0.545449631076981,
-3,0,1,175,0.406720275714398,
-2.5,0,1,176,0.362269370519682,
-2,0,1,177,0.866595602997856,
2,0,1,178,0.70849036551476,
2.5,0,1,179,0.225794605084599,
3,0,1,180,0.752428155742785,
3.5,0,1,181,0.39845484699982,
-3.5,0.5,1,182,0.272425002079655,
-3,0.5,1,183,0.246525408814906,
-2.5,0.5,1,184,0.0087272808927704,
-2,0.5,1,185,0.693116235869525,
2,0.5,1,186,0.0990367485671475,
2.5,0.5,1,187,0.782401211458445,
3,0.5,1,188,0.29549128622538,
3.5,0.5,1,189,0.803790465837247,
-3.5,1,1,190,0.223157369169946,
-3,1,1,191,0.786143944964811,
-2.5,1,1,192,0.722175692078739,
-2,1,1,193,0.16681742349957,
1.5,1,1,194,0.986883045633735,
2,1,1,195,0.324905859923412,
2.5,1,1,196,0.234957102795577,
3,1,1,197,0.395378686206126,
3.5,1,1,198,0.760338195488014,
-3.5,1.5,1,199,0.540273611219727,
-3,1.5,1,200,0.703233669373781,
-2.5,1.5,1,201,0.515945526545842,
-2,1.5,1,202,0.867723375962918,
-1.5,1.5,1,203,0.132996875389012,
1,1.5,1,204,0.309117004884927,
1.5,1.5,1,205,0.358722459691913,
2,1.5,1,206,0.180130659686462,
2.5,1.5,1,207,0.128634552065579,
3,1.5,1,208,0.0882289791890555,
3.5,1.5,1,209,0.891192095769193,
-3,2,1,210,0.545126433738101,
-2.5,2,1,211,0.656567339625474,
-2,2,1,212,0.350800817995705,
-1.5,2,1,213,0.826896350284524,
-1,2,1,214,0.801004761737308,
-0.5,2,1,215,0.980713364193548,
0,2,1,216,0.637593786063415,
0.5,2,1,217,0.990228235251376,
1,2,1,218,0.954950532389316,
1.5,2,1,219,0.205513866713976,
2,2,1,220,0.912480971735195,
2.5,2,1,221,0.045636654387059,
3,2,1,222,0.776039717614669,
-3,2.5,1,223,0.234208961592153,
-2.5,2.5,1,224,0.531829633532013,
-2,2.5,1,225,0.856544739034281,
-1.5,2.5,1,226,0.793638176654297,
-1,2.5,1,227,0.845649543612101,
-0.5,2.5,1,228,0.13082260178906,
0,2.5,1,229,0.220543771153569,
0.5,2.5,1,230,0.17176317291882,
1,2.5,1,231,0.966890684313556,
1.5,2.5,1,232,0.106257407509842,
2,2.5,1,233,0.168216754295033,
2.5,2.5,1,234,0.522560935710818,
-2,3,1,235,0.236482629196943,
-1.5,3,1,236,0.530731471036901,
-1,3,1,237,0.139428126690643,
-0.5,3,1,238,0.937408403929979,
0,3,1,239,0.650004821200857,
0.5,3,1,240,0.512985576183063,
1,3,1,241,0.970402196501569,
1.5,3,1,242,0.69417223226939,
2,3,1,243,0.404299190456187,
-1.5,3.5,1,244,0.258664032099146,
-1,3.5,1,245,0.566590029544472,
-0.5,3.5,1,246,0.435343126969106,
0,3.5,1,247,0.895279341794215,
0.5,3.5,1,248,0.365812661762262,
1,3.5,1,249,0.00616968144018654,
1.5,3.5,1,250,0.687312073859997,
-1.5,-3.5,1.5,251,0.244728867544201,
-1,-3.5,1.5,252,0.44042815381681,
-0.5,-3.5,1.5,253,0.554824328774039,
0,-3.5,1.5,254,0.627792639484532,
0.5,-3.5,1.5,255,0.657597014986722,
1,-3.5,1.5,256,0.739905808931173,
1.5,-3.5,1.5,257,0.633514414370765,
-2,-3,1.5,258,0.601167241856999,
-1.5,-3,1.5,259,0.452572265850647,
-1,-3,1.5,260,0.565084283037616,
-0.5,-3,1.5,261,0.334481116074361,
0,-3,1.5,262,0.997811950276518,
0.5,-3,1.5,263,0.867685208035486,
1,-3,1.5,264,0.719428922850373,
1.5,-3,1.5,265,0.578235749424545,
2,-3,1.5,266,0.550309932115632,
-2.5,-2.5,1.5,267,0.182584063700672,
-2,-2.5,1.5,268,0.304335414573706,
-1.5,-2.5,1.5,269,0.564522132540365,
-1,-2.5,1.5,270,0.449981893156647,
-0.5,-2.5,1.5,271,0.498165659372772,
0,-2.5,1.5,272,0.0528198313213977,
0.5,-2.5,1.5,273,0.304945711188459,
1,-2.5,1.5,274,0.692528290530913,
1.5,-2.5,1.5,275,0.942078775233626,
2,-2.5,1.5,276,0.351464422117669,
2.5,-2.5,1.5,277,0.371740527158482,
-3,-2,1.5,278,0.975544929493007,
-2.5,-2,1.5,279,0.965239603987541,
-2,-2,1.5,280,0.421201612065174,
-1.5,-2,1.5,281,0.898358834860082,
-1,-2,1.5,282,0.479836881849839,
-0.5,-2,1.5,283,0.124652920348874,
0,-2,1.5,284,0.533231697293572,
0.5,-2,1.5,285,0.92703430537462,
1,-2,1.5,286,0.526462530496746,
1.5,-2,1.5,287,0.551433078735803,
2,-2,1.5,288,0.5404241148105,
2.5,-2,1.5,289,0.864963920724096,
3,-2,1.5,290,0.49657682026577,
-3.5,-1.5,1.5,291,0.897217056666136,
-3,-1.5,1.5,292,0.538260884833644,
-2.5,-1.5,1.5,293,0.484836138079332,
-2,-1.5,1.5,294,0.0849205381632412,
-1.5,-1.5,1.5,295,0.178504460108701,
1,-1.5,1.5,296,0.972590246225051,
1.5,-1.5,1.5,297,0.826487024233903,
2,-1.5,1.5,298,0.684870267605814,
2.5,-1.5,1.5,299,0.680428282674601,
3,-1.5,1.5,300,0.0162800974288397,
3.5,-1.5,1.5,301,0.252759063268434,
-3.5,-1,1.5,302,0.590943927220508,
-3,-1,1.5,303,0.801290529221897,
-2.5,-1,1.5,304,0.55618778828354,
-2,-1,1.5,305,0.189146414487225,
1.5,-1,1.5,306,0.191909036222803,
2,-1,1.5,307,0.135482442628351,
2.5,-1,1.5,308,0.862296038243126,
3,-1,1.5,309,0.685713864250907,
3.5,-1,1.5,310,0.306132592869053,
-3.5,-0.5,1.5,311,0.36816528177269,
-3,-0.5,1.5,312,0.657969484877758,
-2.5,-0.5,1.5,313,0.635927637869459,
-2,-0.5,1.5,314,0.0313706537854721,
2,-0.5,1.5,315,0.666725448177534,
2.5,-0.5,1.5,316,0.854644234224523,
3,-0.5,1.5,317,0.873159029927644,
3.5,-0.5,1.5,318,0.334453510741914,
-3.5,0,1.5,319,0.792394617475753,
-3,0,1.5,320,0.0517732189277994,
-2.5,0,1.5,321,0.998876853379829,
-2,0,1.5,322,0.642159948890172,
2,0,1.5,323,0.439371493849611,
2.5,0,1.5,324,0.0679453122745945,
3,0,1.5,325,0.55276483649051,
3.5,0,1.5,326,0.959904774539128,
-3.5,0.5,1.5,327,0.567983693242065,
-3,0.5,1.5,328,0.220025173025217,
-2.5,0.5,1.5,329,0.514023830422211,
-2,0.5,1.5,330,0.969488529008575,
2,0.5,1.5,331,0.524977397883766,
2.5,0.5,1.5,332,0.686870259552668,
3,0.5,1.5,333,0.295116646818405,
3.5,0.5,1.5,334,0.948959506558701,
-3.5,1,1.5,335,0.168442548796741,
-3,1,1.5,336,0.307414907639574,
-2.5,1,1.5,337,0.678546352627942,
-2,1,1.5,338,0.568465132065334,
1.5,1,1.5,339,0.344085282806347,
2,1,1.5,340,0.735125269151817,
2.5,1,1.5,341,0.390980087868394,
3,1,1.5,342,0.689137040492677,
3.5,1,1.5,343,0.854710250559594,
-3.5,1.5,1.5,344,0.558831327855043,
-3,1.5,1.5,345,0.12841153849308,
-2.5,1.5,1.5,346,0.239247571788378,
-2,1.5,1.5,347,0.902333246964185,
-1.5,1.5,1.5,348,0.45346548429386,
1,1.5,1.5,349,0.418195089985707,
1.5,1.5,1.5,350,0.323860225884179,
2,1.5,1.5,351,0.0994312162974063,
2.5,1.5,1.5,352,0.492033513491989,
3,1.5,1.5,353,0.892475650130061,
3.5,1.5,1.5,354,0.628655063746802,
-3,2,1.5,355,0.0174032440490104,
-2.5,2,1.5,356,0.610599114378262,
-2,2,1.5,357,0.151572433370898,
-1.5,2,1.5,358,0.733345216947303,
-1,2,1.5,359,0.00342295179302942,
-0.5,2,1.5,360,0.229241639948097,
0,2,1.5,361,0.623925342980738,
0.5,2,1.5,362,0.915457269603134,
1,2,1.5,363,0.348272207820915,
1.5,2,1.5,364,0.716225335242332,
2,2,1.5,365,0.781155194985287,
2.5,2,1.5,366,0.681295022220022,
3,2,1.5,367,0.362852838059353,
-3,2.5,1.5,368,0.686968131310757,
-2.5,2.5,1.5,369,0.862928104988732,
-2,2.5,1.5,370,0.35931054053796,
-1.5,2.5,1.5,371,0.176097881596581,
-1,2.5,1.5,372,0.30469389786231,
-0.5,2.5,1.5,373,0.990368227935568,
0,2.5,1.5,374,0.0572693483239363,
0.5,2.5,1.5,375,0.660793131059405,
1,2.5,1.5,376,0.309739812887153,
1.5,2.5,1.5,377,0.787449698330578,
2,2.5,1.5,378,0.880540165994568,
2.5,2.5,1.5,379,0.939533773781515,
-2.5,3,1.5,380,0.313517264702133,
-2,3,1.5,381,0.0575715275749432,
-1.5,3,1.5,382,0.114518208948205,
-1,3,1.5,383,0.80183008303951,
-0.5,3,1.5,384,0.190163604538033,
0,3,1.5,385,0.870057312711169,
0.5,3,1.5,386,0.0329438843917772,
1,3,1.5,387,0.794394609422607,
1.5,3,1.5,388,0.666461583071603,
2,3,1.5,389,0.931556262509691,
-1.5,3.5,1.5,390,0.557843434418479,
-1,3.5,1.5,391,0.155842474268676,
-0.5,3.5,1.5,392,0.945201135680639,
0,3.5,1.5,393,0.565042180272305,
0.5,3.5,1.5,394,0.11484364285825,
1,3.5,1.5,395,0.111199926171079,
1.5,3.5,1.5,396,0.475522818265261,
-0.5,-3.5,2,397,0.340864832671762,
0,-3.5,2,398,0.138484915317262,
0.5,-3.5,2,399,0.777676132869756,
-2,-3,2,400,0.447116516273057,
-1.5,-3,2,401,0.876394733729025,
-1,-3,2,402,0.215365115653428,
-0.5,-3,2,403,0.590537379305129,
0,-3,2,404,0.0588845494477472,
0.5,-3,2,405,0.147762344287598,
1,-3,2,406,0.794737318435096,
1.5,-3,2,407,0.501665285556421,
-2.5,-2.5,2,408,0.835206301806125,
-2,-2.5,2,409,0.967861932687397,
-1.5,-2.5,2,410,0.707663431161858,
-1,-2.5,2,411,0.823149416047684,
-0.5,-2.5,2,412,0.27103226737633,
0,-2.5,2,413,0.793811443165788,
0.5,-2.5,2,414,0.689905687090897,
1,-2.5,2,415,0.171670112373154,
1.5,-2.5,2,416,0.509407134032532,
2,-2.5,2,417,0.113627186563624,
2.5,-2.5,2,418,0.158108603282882,
-3,-2,2,419,0.846168022531163,
-2.5,-2,2,420,0.74821131059351,
-2,-2,2,421,0.886900412797416,
-1.5,-2,2,422,0.69639125498775,
-1,-2,2,423,0.755411868801067,
0.5,-2,2,424,0.305084670570253,
1,-2,2,425,0.203468066269284,
1.5,-2,2,426,0.230896745915942,
2,-2,2,427,0.739651717590006,
2.5,-2,2,428,0.875524585077318,
-3,-1.5,2,429,0.946069422152857,
-2.5,-1.5,2,430,0.185270312794144,
-2,-1.5,2,431,0.968874980215391,
-1.5,-1.5,2,432,0.648964783013316,
1.5,-1.5,2,433,0.102864033124812,
2,-1.5,2,434,0.492417257508457,
2.5,-1.5,2,435,0.437122530973108,
3,-1.5,2,436,0.842206411921515,
-3,-1,2,437,0.523980829643077,
-2.5,-1,2,438,0.742945533591763,
-2,-1,2,439,0.0424012602504349,
2,-1,2,440,0.0753199942760728,
2.5,-1,2,441,0.531278598835356,
3,-1,2,442,0.959188307616482,
-3.5,-0.5,2,443,0.698599650384206,
-3,-0.5,2,444,0.223892831347833,
-2.5,-0.5,2,445,0.734694018370795,
2,-0.5,2,446,0.884810206892346,
2.5,-0.5,2,447,0.151389692514851,
3,-0.5,2,448,0.875136493181408,
3.5,-0.5,2,449,0.943173530485096,
-3.5,0,2,450,0.601792792138547,
-3,0,2,451,0.361895631701637,
-2.5,0,2,452,0.18275622938888,
2.5,0,2,453,0.292316892786099,
3,0,2,454,0.0294648222762462,
3.5,0,2,455,0.560216103475642,
-3.5,0.5,2,456,0.180003478741275,
-3,0.5,2,457,0.459953246852361,
-2.5,0.5,2,458,0.285452708734876,
2,0.5,2,459,0.855416483178463,
2.5,0.5,2,460,0.916865598371655,
3,0.5,2,461,0.0550856008450899,
3.5,0.5,2,462,0.626140700479104,
-3.5,1,2,463,0.889136879653268,
-3,1,2,464,0.782591619893253,
-2.5,1,2,465,0.738788450946467,
-2,1,2,466,0.174184633034367,
2,1,2,467,0.168168234251518,
2.5,1,2,468,0.301394185657331,
3,1,2,469,0.252783156117789,
-3,1.5,2,470,0.329463700451638,
-2.5,1.5,2,471,0.985426304389455,
-2,1.5,2,472,0.370681652971861,
-1.5,1.5,2,473,0.115707343032447,
1.5,1.5,2,474,0.77084802825509,
2,1.5,2,475,0.216932711758154,
2.5,1.5,2,476,0.927712105180934,
3,1.5,2,477,0.997791604603544,
-3,2,2,478,0.531519037453234,
-2.5,2,2,479,0.570390652199458,
-2,2,2,480,0.318657859376938,
-1.5,2,2,481,0.0795070534010916,
-1,2,2,482,0.864515224408598,
1,2,2,483,0.932351054592222,
1.5,2,2,484,0.34427663001431,
2,2,2,485,0.823374681092508,
2.5,2,2,486,0.786118750826511,
-2.5,2.5,2,487,0.356647890227217,
-2,2.5,2,488,0.0733992108485658,
-1.5,2.5,2,489,0.932201154032816,
-1,2.5,2,490,0.257119052231833,
-0.5,2.5,2,491,0.382253165069154,
0,2.5,2,492,0.238528120908201,
0.5,2.5,2,493,0.8875290504133,
1,2.5,2,494,0.125535661878779,
1.5,2.5,2,495,0.0202343934309829,
2,2.5,2,496,0.905137898356252,
2.5,2.5,2,497,0.0700514279632137,
-2,3,2,498,0.916008030490953,
-1.5,3,2,499,0.485104380401366,
-1,3,2,500,0.560509385336428,
-0.5,3,2,501,0.716641972640828,
0,3,2,502,0.84999550685752,
0.5,3,2,503,0.622353337063619,
1,3,2,504,0.613709830033458,
1.5,3,2,505,0.616366487749092,
-0.5,3.5,2,506,0.991213978729776,
0,3.5,2,507,0.0670488863564324,
0.5,3.5,2,508,0.521468864531009,
